dataset;MinMin;MinMax;RelativeCost;Sufferage;LSufferage;PenaltyBased;TPB;LPLB
A.u_c_hihi;22508062.4000;22925218.3100;26981108.3400;30004641.8300;21398040.2800;22618822.0000;20349518.7000;19449230.0000
A.u_c_hilo;2255966.0000;2367409.4300;2667845.0000;2816620.4600;2160266.4100;2282607.7500;2030033.0900;1951345.1000
A.u_c_lohi;2154.9500;2236.8100;2523.1900;2751.9200;2070.3300;1989.7100;1962.3400;1866.4000
A.u_c_lolo;225.8700;234.9400;269.4900;288.1700;218.2200;215.5100;207.0700;198.9000
A.u_i_hihi;6367767.5700;5539988.3900;6527383.1300;5601366.9800;5907910.4400;5524262.0700;5355933.0100;5012207.0000
A.u_i_hilo;641438.4100;502462.7600;633201.9400;533545.1600;576606.9700;538232.0200;510265.4300;474404.6000
A.u_i_lohi;664.7100;554.5100;615.5100;551.7100;562.7100;554.0400;541.1600;503.4000
A.u_i_lolo;63.7200;54.8100;58.5200;54.7900;53.6600;53.9500;52.4500;49.0000
A.u_s_hihi;14125881.6300;14744164.3800;15672428.1400;16939635.8300;13874302.2200;13675455.2500;12816629.0900;11553632.0000
A.u_s_hilo;1319050.5600;1391542.0500;1506525.8900;1603159.0000;1373949.0800;1286808.9500;1250464.1200;1126556.2000
A.u_s_lohi;1380.5400;1445.1000;1515.8500;1681.3500;1359.1600;1342.4500;1238.7800;1122.2000
A.u_s_lolo;140.5600;148.2600;154.7100;170.2000;140.5100;132.4600;129.4400;116.7000
B.u_c_hihi;6708228.5200;7196153.8300;7755839.9700;8514664.6000;6645054.9400;6401701.0600;6273091.6300;5980871.9000
B.u_c_hilo;66684.4800;70842.6000;78064.0000;84876.7400;66143.0800;62553.1400;61480.0500;58942.5000
B.u_c_lohi;232011.7700;247657.6600;275938.9100;296032.8200;227227.9200;227051.5500;216611.3500;207892.8000
B.u_c_lolo;2386.2800;2515.8300;2854.3400;3109.5400;2286.1500;2246.8600;2186.0000;2078.0000
B.u_i_hihi;2164576.6800;1862257.9300;2184682.6600;1847652.5000;1885819.5200;1863762.5000;1676943.4400;1567178.7000
B.u_i_hilo;17083.1400;16211.1700;16400.4400;16366.1600;16322.1100;16647.0400;15554.1600;14582.3000
B.u_i_lohi;56601.2100;56214.5400;57057.2800;55083.1600;56040.4500;54551.5100;51250.8200;47606.9000
B.u_i_lolo;584.9600;559.0700;541.8400;535.2400;578.9700;543.4800;514.3600;477.4000
B.u_s_hihi;3967265.8700;4029115.2300;4311309.5500;4714483.3500;3880620.2600;3693492.1800;3627964.5300;3178482.2000
B.u_s_hilo;40691.5900;43454.1800;47298.2200;50884.2600;40964.1000;39322.7000;38276.4500;33948.7000
B.u_s_lohi;135624.5700;136314.6000;149379.5100;152928.1500;128850.0600;126185.7100;122973.7700;108330.1000
B.u_s_lolo;1333.2100;1439.1200;1540.7300;1686.7900;1432.7000;1279.1600;1255.4900;1128.1000
