dataset;MinMin;MinMax;RelativeCost;Sufferage;LSufferage;PenaltyBased;TPB;LPLB
A.u_c_hihi;19552221.8300;21262097.3600;24106960.9900;25579857.8400;19088859.3800;20098844.0000;17820097.4900;17141977.4000
A.u_c_hilo;1873134.1600;2027221.1700;2305994.1700;2478699.2800;1839290.2800;1783578.8600;1740446.1800;1664592.8000
A.u_c_lohi;1924.6500;2136.8000;2395.5600;2548.9100;1892.9100;1879.4700;1785.3000;1695.3000
A.u_c_lolo;191.6200;207.7900;236.6000;254.2800;186.0800;183.1000;174.9400;168.3000
A.u_i_hihi;3248935.3800;2619872.3600;3359140.1200;3218272.4600;3078225.4200;2846358.5300;2667259.1500;2366682.1000
A.u_i_hilo;365828.5700;295287.7200;361440.4900;315267.4800;323116.5900;321792.2700;287055.3100;260904.5000
A.u_i_lohi;320.9400;313.9400;312.2900;313.3000;317.5700;307.3800;276.1100;255.2000
A.u_i_lolo;32.2700;28.0800;31.7600;32.0000;31.0300;31.4000;28.5700;25.1000
A.u_s_hihi;11245679.6300;12016228.5400;12909673.3300;13890956.5500;11491660.8200;10570583.2100;10071471.5500;9050260.8000
A.u_s_hilo;1042948.5400;1097463.4800;1204146.3900;1307394.4700;1053603.1600;966817.8600;936387.0100;851399.9000
A.u_s_lohi;1055.9900;1121.2700;1262.4700;1362.8900;1088.9000;1014.6500;988.2200;888.9000
A.u_s_lolo;115.3400;119.7000;131.0100;137.9900;113.1300;109.5200;102.3000;92.3000
B.u_c_hihi;5564664.3200;6142490.8700;6989304.7500;7560319.1100;5553517.2500;5475916.3900;5186179.1900;4975778.8000
B.u_c_hilo;59352.7700;64439.2100;74905.3100;79229.6800;58199.8200;58156.8700;54331.7300;52240.6000
B.u_c_lohi;190842.3900;206397.6000;244632.0400;254098.4300;186203.4900;182007.3400;174844.2600;167381.1000
B.u_c_lolo;1927.7300;2117.1600;2382.2000;2559.6200;1905.4600;1930.4500;1787.2700;1715.0000
B.u_i_hihi;929295.8200;811805.5400;883495.6000;879421.3700;922877.9400;906682.1000;832197.8200;735101.5000
B.u_i_hilo;10318.4200;9005.7300;11498.4500;9047.6500;10089.9400;8847.5200;8318.0500;7536.3000
B.u_i_lohi;34071.0400;28477.6800;32896.9200;32073.6100;32774.1300;30406.8000;28689.3000;25681.2000
B.u_i_lolo;355.7400;281.0300;326.6300;299.2500;319.9300;304.8400;284.1500;250.5000
B.u_s_hihi;3293157.0800;3504763.5100;3839465.7100;4121618.4900;3332695.7600;3128983.6200;2984664.8000;2710023.7000
B.u_s_hilo;33445.4200;35686.1000;39348.7200;41556.1600;33015.2400;32017.6800;30307.5700;27268.0000
B.u_s_lohi;111237.3500;117915.2200;131622.8500;142534.6900;110918.2300;106055.3700;102637.3500;90727.3000
B.u_s_lolo;1163.8500;1220.0000;1333.9300;1440.7900;1128.9200;1099.2300;1051.9100;939.0000
