2015-07-25
Issue 1
Heuristic MinMinPlus returns wrong result on specific datasets: 
3382 [main] INFO  unittests.MinMinPlusSanityTest testSanity  - datasets//4096X128//A.u_c_lohi 1631,390000 <--> 1630,460000 <--> 1631,390000


Issue 2
