Instance;LP Bound
A.u_c_hihi;19449230.0
A.u_c_hilo;1951345.1
A.u_c_lohi;1866.4
A.u_c_lolo;198.9
A.u_i_hihi;5012207.0
A.u_i_hilo;474404.6
A.u_i_lohi;503.4
A.u_i_lolo;49.0
A.u_s_hihi;11553632.0
A.u_s_hilo;1126556.2
A.u_s_lohi;1122.2
A.u_s_lolo;116.7
B.u_c_hihi;5980871.9
B.u_c_hilo;58942.5
B.u_c_lohi;207892.8
B.u_c_lolo;2078.0
B.u_i_hihi;1567178.7
B.u_i_hilo;14582.3
B.u_i_lohi;47606.9
B.u_i_lolo;477.4
B.u_s_hihi;3178482.2
B.u_s_hilo;33948.7
B.u_s_lohi;108330.1
B.u_s_lolo;1128.1